<?xml version="1.0" standalone="no"?>
<!DOCTYPE svg PUBLIC "-//W3C//DTD SVG 1.1//EN" "http://www.w3.org/Graphics/SVG/1.1/DTD/svg11.dtd" >
<svg xmlns="http://www.w3.org/2000/svg">
<metadata>
This is a custom SVG webfont generated by Font Squirrel.
</metadata>
<defs>
<font id="webfontUfTUoNao" horiz-adv-x="543" >
<font-face units-per-em="1000" ascent="800" descent="-200" />
<missing-glyph horiz-adv-x="232" />
<glyph unicode=" "  horiz-adv-x="232" />
<glyph unicode="&#x09;" horiz-adv-x="232" />
<glyph unicode="&#xa0;" horiz-adv-x="232" />
<glyph unicode="!" horiz-adv-x="347" d="M272 712l-31 -489h-98l-31 489h160zM261 0h-138v133h138v-133z" />
<glyph unicode="&#x22;" horiz-adv-x="464" d="M395 501h-121v211h121v-211zM190 501h-122v211h122v-211z" />
<glyph unicode="#" horiz-adv-x="691" d="M643 420h-89l-16 -108h69v-122h-89l-30 -190h-137l31 190h-116l-30 -190h-137l30 190h-69v122h89l16 108h-70v121h89l28 177h137l-28 -177h116l28 177h136l-27 -177h69v-121zM417 420h-115l-17 -108h116z" />
<glyph unicode="$" horiz-adv-x="619" d="M571 210q0 -89 -59 -144.5t-156 -67.5v-112h-101v108q-148 5 -236 94l90 90q57 -57 159 -60v181l-32 4q-90 12 -138 60q-51 51 -51 139q0 87 55.5 145.5t152.5 68.5v90h101v-89q120 -7 197 -82l-88 -87q-44 42 -123 48v-174l38 -6q91 -14 136 -56q55 -52 55 -150z M268 428v167q-42 -6 -64.5 -30t-22.5 -58q0 -31 21 -51q23 -22 66 -28zM435 206q0 39 -22 60q-19 18 -71 26v-172q93 11 93 86z" />
<glyph unicode="%" horiz-adv-x="848" d="M796 131q0 -65 -41.5 -101t-103.5 -36t-103.5 36t-41.5 101v99q0 65 41.5 101t103.5 36t103.5 -36t41.5 -101v-99zM644 712l-337 -712h-102l337 712h102zM342 482q0 -65 -41.5 -101t-103.5 -36t-103.5 36t-41.5 101v99q0 65 41.5 101t103.5 36t103.5 -36t41.5 -101v-99z M702 135v91q0 57 -51 57t-51 -57v-91q0 -57 51 -57t51 57zM248 486v91q0 57 -51 57t-51 -57v-91q0 -57 51 -57t51 57z" />
<glyph unicode="&#x26;" horiz-adv-x="721" d="M696 0h-165l-52 62q-26 -21 -41 -31t-55.5 -23.5t-87.5 -13.5q-116 0 -175.5 57t-59.5 159q0 106 128 191q-71 81 -71 151q0 74 51 120t139 46q83 0 132.5 -47t49.5 -121q0 -71 -73 -124q-33 -25 -51 -37l120 -142q33 44 36 125h123q-8 -145 -76 -221zM366 549 q0 25 -16 41.5t-43 16.5q-28 0 -43.5 -16t-15.5 -42q0 -12 7.5 -27t15 -24.5t24.5 -28.5l30 20q41 29 41 60zM400 154l-142 167q-37 -26 -54.5 -50t-17.5 -59q0 -44 31 -72t77 -28q58 0 106 42z" />
<glyph unicode="'" horiz-adv-x="259" d="M191 501h-123v211h123v-211z" />
<glyph unicode="(" horiz-adv-x="336" d="M281 -7l-87 -87q-66 66 -88 103q-26 45 -26 129v436q0 84 26 129q22 37 88 103l87 -87q-40 -40 -56 -67q-15 -27 -15 -84v-424q0 -57 15 -84q16 -27 56 -67z" />
<glyph unicode=")" horiz-adv-x="336" d="M256 138q0 -84 -26 -129q-22 -37 -88 -103l-88 88q42 42 56 66q15 27 15 84v424q0 57 -15 84q-14 24 -56 66l88 88q66 -66 88 -103q26 -45 26 -129v-436z" />
<glyph unicode="*" horiz-adv-x="494" d="M440 460l-46 -79l-105 66l4 -125h-92l5 125l-106 -66l-45 79l110 58l-110 58l45 80l106 -67l-5 125h92l-4 -125l105 67l46 -80l-111 -58z" />
<glyph unicode="+" d="M493 216h-160v-160h-122v160h-161v122h161v160h122v-160h160v-122z" />
<glyph unicode="," horiz-adv-x="279" d="M211 -55l-143 -110v307h143v-197z" />
<glyph unicode="-" horiz-adv-x="426" d="M367 225h-308v121h308v-121z" />
<glyph unicode="." horiz-adv-x="285" d="M217 0h-149v148h149v-148z" />
<glyph unicode="/" horiz-adv-x="403" d="M407 786l-285 -860h-122l285 860h122z" />
<glyph unicode="0" d="M488 206q0 -98 -62.5 -155t-153.5 -57t-154 57t-63 155v300q0 98 63 155t154 57t153.5 -57t62.5 -155v-300zM358 207v297q0 45 -23.5 71t-62.5 26t-63 -26.5t-24 -70.5v-297q0 -44 24 -70t63 -26t62.5 26t23.5 70z" />
<glyph unicode="1" d="M378 0h-130v572l-145 -126v140l145 126h130v-712z" />
<glyph unicode="2" d="M492 0h-433v117l266 309q37 44 37 86q0 40 -22.5 64.5t-63.5 24.5q-37 0 -62 -21.5t-25 -69.5h-130q0 95 61.5 151.5t155.5 56.5q96 0 156 -56t60 -151q0 -48 -17 -81t-59 -82l-199 -231h275v-117z" />
<glyph unicode="3" d="M495 206q0 -102 -64.5 -157t-161.5 -55q-95 0 -160.5 52.5t-66.5 157.5h130q1 -46 28.5 -69.5t68.5 -23.5q43 0 69.5 26t26.5 73q0 45 -26.5 71.5t-73.5 26.5h-19v113h19q45 0 67.5 24.5t22.5 64.5q0 43 -25 67t-62 24t-61.5 -23t-26.5 -63h-130q2 93 64 148t154 55 q95 0 156 -57t61 -147q0 -102 -82 -146q92 -49 92 -162z" />
<glyph unicode="4" d="M512 101h-65v-101h-125v101h-291v123l244 488h142l-244 -488h149v133h125v-133h65v-123z" />
<glyph unicode="5" d="M494 240q0 -65 -13 -108t-50 -80q-58 -58 -157 -58q-102 0 -159 57q-51 51 -58 148h130q11 -88 87 -88q39 0 62 23q28 28 28 106q0 128 -87 128q-67 0 -86 -58h-119v402h406v-117h-288v-153q38 36 107 36q85 0 133 -48q64 -64 64 -190z" />
<glyph unicode="6" d="M492 216q0 -103 -62.5 -162.5t-159.5 -59.5t-159.5 58.5t-62.5 161.5q0 68 60 190l150 308h142l-148 -294q22 9 53 9q76 0 131.5 -58t55.5 -153zM362 215q0 47 -25.5 75.5t-66.5 28.5t-66.5 -28t-25.5 -76t25.5 -76t66.5 -28t66.5 28t25.5 76z" />
<glyph unicode="7" d="M503 595l-231 -595h-141l231 595h-188v-112h-124v229h453v-117z" />
<glyph unicode="8" d="M500 207q0 -100 -64.5 -156.5t-163.5 -56.5t-163.5 56.5t-64.5 156.5q0 101 89 160q-80 56 -80 148t63.5 147.5t155.5 55.5t155 -55.5t63 -147.5t-80 -148q90 -60 90 -160zM360 511q0 38 -25 64t-63 26t-63.5 -26t-25.5 -64q0 -39 25.5 -64.5t63.5 -25.5t63 25.5t25 64.5 zM370 209q0 41 -28.5 70t-69.5 29t-69.5 -29t-28.5 -70t28.5 -69.5t69.5 -28.5t69.5 28.5t28.5 69.5z" />
<glyph unicode="9" d="M495 498q0 -70 -59 -190l-151 -308h-141l148 294q-22 -9 -53 -9q-76 0 -132 58t-56 153q0 103 62.5 162.5t159.5 59.5t159.5 -58.5t62.5 -161.5zM365 497q0 48 -25.5 76t-66.5 28t-66.5 -28t-25.5 -76q0 -47 25.5 -75.5t66.5 -28.5t66.5 28t25.5 76z" />
<glyph unicode=":" horiz-adv-x="309" d="M241 271h-148v148h148v-148zM241 0h-148v148h148v-148z" />
<glyph unicode=";" horiz-adv-x="309" d="M241 271h-148v148h148v-148zM238 -55l-142 -110v307h142v-197z" />
<glyph unicode="&#x3c;" horiz-adv-x="1027" d="M976 224h-703l326 -324h-164l-385 385l385 385h164l-326 -323h703v-123z" />
<glyph unicode="=" d="M493 333h-443v122h443v-122zM493 116h-443v122h443v-122z" />
<glyph unicode="&#x3e;" horiz-adv-x="1027" d="M977 285l-385 -385h-164l326 324h-704v123h704l-326 323h164z" />
<glyph unicode="?" horiz-adv-x="523" d="M487 518q0 -60 -49 -125l-74 -98q-18 -23 -18 -51v-21h-130v30q0 54 38 104l74 95q29 38 29 67q0 36 -22 59t-59 23q-38 0 -59 -23.5t-21 -59.5h-130q0 91 60 145.5t150 54.5q89 0 150 -54t61 -146zM350 0h-138v133h138v-133z" />
<glyph unicode="@" horiz-adv-x="758" d="M700 -3l-121 3v46q-48 -52 -120 -52q-79 0 -126 50q-29 31 -38 72t-9 115q0 73 9 113.5t37 71.5q46 51 126 51q73 0 118 -49v45q0 67 -35 102t-100 35h-124q-65 0 -100 -35t-35 -102v-289q0 -37 9.5 -57t34.5 -42l-90 -90q-44 40 -61.5 78t-17.5 104v299q0 127 62 189 q61 61 188 61h144q127 0 188 -61t61 -189v-469zM576 231q0 63 -18.5 95.5t-64.5 32.5t-64 -32t-18 -96t18 -96.5t64 -32.5t64.5 33t18.5 96z" />
<glyph unicode="A" horiz-adv-x="638" d="M633 0h-145l-42 126h-253l-43 -126h-145l259 712h109zM409 243l-87 259l-90 -259h177z" />
<glyph unicode="B" horiz-adv-x="658" d="M599 205q0 -97 -60 -151t-158 -54h-298v712h286q103 0 161.5 -54t58.5 -146q0 -54 -27.5 -92.5t-60.5 -54.5q98 -46 98 -160zM450 506q0 37 -24 59.5t-68 22.5h-136v-164h136q44 0 68 22.5t24 59.5zM460 212q0 38 -24 62.5t-69 24.5h-145v-175h145q45 0 69 25t24 63z" />
<glyph unicode="C" horiz-adv-x="620" d="M583 219q-18 -109 -89 -167t-173 -58q-114 0 -192 78q-26 26 -41 54.5t-21 71.5t-7 69t-1 89t1 89t7 69t21 71.5t41 54.5q78 78 192 78q103 0 173.5 -58t88.5 -167h-141q-25 101 -120 101q-57 0 -89 -37q-21 -23 -28 -62t-7 -139t7 -139t28 -62q32 -37 89 -37 q95 0 120 101h141z" />
<glyph unicode="D" horiz-adv-x="659" d="M600 359v-34.5v-36.5t-1 -33.5t-3 -35.5t-5 -31t-8.5 -33.5l-13 -29.5t-18 -30.5t-23.5 -26.5q-68 -68 -188 -68h-257v712h257q120 0 188 -68q13 -13 23.5 -26.5t18 -30l13 -28.5t8.5 -32.5t5 -30t3 -34.5t1 -32.5v-36v-34.5zM461 359q0 85 -5.5 123.5t-24.5 61.5 q-36 44 -104 44h-105v-464h105q68 0 104 44q19 23 24.5 63.5t5.5 127.5z" />
<glyph unicode="E" horiz-adv-x="605" d="M552 0h-469v712h469v-124h-330v-167h281v-124h-281v-173h330v-124z" />
<glyph unicode="F" horiz-adv-x="590" d="M552 588h-330v-175h281v-124h-281v-289h-139v712h469v-124z" />
<glyph unicode="G" horiz-adv-x="648" d="M590 292q0 -78 -15.5 -128t-52.5 -89q-78 -81 -201 -81q-114 0 -192 78q-26 26 -41 54.5t-21 71.5t-7 69t-1 89t1 89t7 69t21 71.5t41 54.5q78 78 192 78q116 0 184 -65t84 -163h-140q-25 104 -128 104q-56 0 -89 -38q-21 -23 -27.5 -61t-6.5 -139t6.5 -139.5t27.5 -61.5 q32 -37 89 -37q62 0 99 40q32 36 32 95v27h-131v116h269v-104z" />
<glyph unicode="H" horiz-adv-x="685" d="M602 0h-139v298h-241v-298h-139v712h139v-291h241v291h139v-712z" />
<glyph unicode="I" horiz-adv-x="305" d="M222 0h-139v712h139v-712z" />
<glyph unicode="J" horiz-adv-x="511" d="M437 234q0 -113 -73 -176.5t-178 -63.5q-58 0 -101 17t-82 56l92 91q40 -40 91 -40q52 0 82 31t30 91v472h139v-478z" />
<glyph unicode="K" horiz-adv-x="665" d="M659 0h-162l-183 324l-92 -110v-214h-139v712h139v-310l251 310h169l-236 -283z" />
<glyph unicode="L" horiz-adv-x="575" d="M545 0h-462v712h139v-588h323v-124z" />
<glyph unicode="M" horiz-adv-x="811" d="M728 0h-139v415l-136 -270h-94l-137 270v-415h-139v712h137l186 -385l185 385h137v-712z" />
<glyph unicode="N" horiz-adv-x="711" d="M628 0h-124l-282 437v-437h-139v712h124l282 -436v436h139v-712z" />
<glyph unicode="O" horiz-adv-x="644" d="M585 356q0 -61 -1 -89t-7 -69.5t-21.5 -70.5t-41.5 -55q-78 -78 -192 -78q-115 0 -193 78q-26 26 -41 54.5t-21 71.5t-7 69t-1 89t1 89t7 69t21 71.5t41 54.5q78 78 193 78q114 0 192 -78q26 -26 41.5 -55t21.5 -70.5t7 -69.5t1 -89zM446 356q0 100 -7 138.5t-28 61.5 q-33 38 -89 38q-57 0 -90 -38q-21 -23 -27.5 -61t-6.5 -139t6.5 -139t27.5 -61q33 -38 90 -38q56 0 89 38q21 23 28 61.5t7 138.5z" />
<glyph unicode="P" horiz-adv-x="628" d="M594 490q0 -94 -64 -158t-171 -64h-137v-268h-139v712h276q107 0 171 -64t64 -158zM455 490q0 44 -28 71t-75 27h-130v-195h130q47 0 75 26.5t28 70.5z" />
<glyph unicode="Q" horiz-adv-x="643" d="M602 43l-73 -73l-63 63q-60 -39 -144 -39q-115 0 -193 78q-26 26 -41 54.5t-21 71.5t-7 69t-1 89t1 89t7 69t21 71.5t41 54.5q78 78 193 78q114 0 192 -78q26 -26 41.5 -55t21.5 -70.5t7 -69.5t1 -89q0 -70 -1.5 -102t-11.5 -75.5t-31 -74.5zM446 356q0 100 -7 138.5 t-28 61.5q-33 38 -89 38q-57 0 -90 -38q-21 -23 -27.5 -61t-6.5 -139t6.5 -139t27.5 -61q33 -38 90 -38q27 0 46 13l-62 61l74 73l53 -53q13 37 13 144z" />
<glyph unicode="R" horiz-adv-x="654" d="M622 0h-161l-139 284h-100v-284h-139v712h279q106 0 168.5 -63t62.5 -155q0 -71 -37 -119t-93 -68zM454 494q0 42 -28 68t-73 26h-131v-188h131q45 0 73 26t28 68z" />
<glyph unicode="S" horiz-adv-x="591" d="M543 210q0 -101 -74.5 -158.5t-189.5 -57.5q-85 0 -147 21.5t-113 72.5l90 90q60 -60 172 -60q126 0 126 88q0 39 -22 60q-20 18 -63 25l-86 12q-91 13 -138 59q-51 51 -51 140q0 97 67 156.5t181 59.5q144 0 230 -83l-88 -87q-51 49 -146 49q-53 0 -81.5 -25.5 t-28.5 -64.5q0 -31 21 -51q24 -22 66 -28l84 -12q90 -13 136 -55q55 -52 55 -151z" />
<glyph unicode="T" horiz-adv-x="571" d="M541 588h-186v-588h-139v588h-186v124h511v-124z" />
<glyph unicode="U" horiz-adv-x="668" d="M596 244q0 -111 -75 -180.5t-187 -69.5t-187 69.5t-75 180.5v468h139v-463q0 -61 33 -96t90 -35t90.5 35t33.5 96v463h138v-468z" />
<glyph unicode="V" horiz-adv-x="581" d="M578 712l-236 -712h-104l-235 712h144l143 -464l143 464h145z" />
<glyph unicode="W" horiz-adv-x="887" d="M881 712l-191 -712h-116l-131 432l-131 -432h-116l-190 712h145l110 -449l130 449h104l130 -449l111 449h145z" />
<glyph unicode="X" horiz-adv-x="603" d="M598 0h-159l-138 248l-137 -248h-159l221 365l-207 347h158l124 -230l125 230h157l-207 -347z" />
<glyph unicode="Y" horiz-adv-x="572" d="M569 712l-214 -420v-292h-138v292l-214 420h151l133 -287l131 287h151z" />
<glyph unicode="Z" horiz-adv-x="548" d="M508 0h-468v112l304 476h-291v124h455v-110l-305 -478h305v-124z" />
<glyph unicode="[" horiz-adv-x="378" d="M337 -74h-257v860h257v-117h-127v-626h127v-117z" />
<glyph unicode="\" horiz-adv-x="403" d="M403 -74h-122l-281 847h122z" />
<glyph unicode="]" horiz-adv-x="378" d="M299 -74h-257v116h127v628h-127v116h257v-860z" />
<glyph unicode="^" horiz-adv-x="602" d="M539 389h-136l-102 188l-102 -188h-136l178 330h120z" />
<glyph unicode="_" horiz-adv-x="602" d="M602 -178h-602v87h602v-87z" />
<glyph unicode="`" horiz-adv-x="500" d="M305 604h-87l-114 170h137z" />
<glyph unicode="a" horiz-adv-x="534" d="M467 0h-127v45q-27 -27 -55.5 -38.5t-72.5 -11.5q-87 0 -133 46q-43 45 -43 117q0 66 45.5 108.5t132.5 42.5h123v26q0 43 -23 62.5t-74 19.5q-37 0 -58 -9.5t-42 -33.5l-83 81q37 41 79 56.5t109 15.5q222 0 222 -184v-343zM337 192v28h-103q-35 0 -54 -15.5t-19 -43.5 q0 -60 75 -60q56 0 82 25q19 18 19 66z" />
<glyph unicode="b" horiz-adv-x="560" d="M509 261q0 -52 -2 -82.5t-14.5 -72t-36.5 -65.5q-47 -47 -127 -47q-81 0 -130 55v-49h-126v712h130v-237q47 52 126 52q80 0 127 -47q24 -24 36.5 -65t14.5 -71.5t2 -82.5zM379 261q0 74 -17 111.5t-71 37.5t-71 -37.5t-17 -111.5q0 -36 3 -60t11.5 -46t27 -33t46.5 -11 t46.5 11t27 33t11.5 46t3 60z" />
<glyph unicode="c" horiz-adv-x="480" d="M452 65q-68 -71 -172 -71q-33 0 -64 7.5t-62.5 26t-54.5 48t-37.5 77t-14.5 108.5t14.5 108.5t37.5 76.5t54.5 48t62.5 26t64 7q105 0 172 -70l-88 -88q-38 41 -84 41t-74 -34q-29 -36 -29 -115q0 -80 29 -116q28 -34 74 -34t84 41z" />
<glyph unicode="d" horiz-adv-x="561" d="M488 0h-127v49q-49 -55 -129 -55q-81 0 -128 47q-24 24 -36.5 65.5t-14.5 72t-2 82.5t2 82.5t14.5 71.5t36.5 65q47 47 127 47t127 -52v237h130v-712zM358 261q0 74 -17.5 111.5t-71.5 37.5t-71 -37.5t-17 -111.5q0 -36 3 -60t11.5 -46t27 -33t46.5 -11q54 0 71.5 38 t17.5 112z" />
<glyph unicode="e" horiz-adv-x="548" d="M501 220h-326q0 -52 30.5 -84t83.5 -32q41 0 66.5 11.5t51.5 37.5l79 -77q-43 -43 -87 -62.5t-111 -19.5q-50 0 -90.5 12.5t-75.5 41.5t-55 83t-20 130q0 125 62 195.5t165 70.5q106 0 166.5 -69.5t60.5 -179.5v-58zM373 309q-1 31 -12 56q-24 54 -87 54t-87 -54 q-11 -25 -12 -56h198z" />
<glyph unicode="f" horiz-adv-x="342" d="M315 407h-96v-407h-130v407h-54v99h54v65q0 61 39 105t113 44h74v-110h-51q-45 0 -45 -47v-57h96v-99z" />
<glyph unicode="g" horiz-adv-x="555" d="M482 19q0 -95 -62.5 -155.5t-166.5 -60.5q-62 0 -106 15t-83 53l81 82q41 -40 102 -40q54 0 79.5 31.5t25.5 76.5v53q-47 -52 -124 -52q-78 0 -124 46q-34 34 -43.5 80.5t-9.5 126.5t9.5 126t43.5 80q46 46 125 46q77 0 127 -55v49h126v-502zM352 275q0 63 -17 99t-69 36 q-28 0 -45.5 -10.5t-26 -31.5t-11 -42t-2.5 -51t2.5 -51t10.5 -42t26 -32t46 -11t46 11t26 32t11 42t3 51z" />
<glyph unicode="h" horiz-adv-x="569" d="M502 0h-130v318q0 48 -25 70t-60 22t-59.5 -22.5t-24.5 -69.5v-318h-130v712h130v-239q53 54 125 54q83 0 128.5 -52.5t45.5 -137.5v-337z" />
<glyph unicode="i" horiz-adv-x="275" d="M204 610h-133v106h133v-106zM203 0h-130v521h130v-521z" />
<glyph unicode="j" horiz-adv-x="275" d="M204 610h-133v106h133v-106zM203 -46q0 -61 -38.5 -105t-113.5 -44h-74v110h50q46 0 46 47v559h130v-567z" />
<glyph unicode="k" horiz-adv-x="559" d="M547 0h-161l-128 217l-55 -62v-155h-130v712h130v-404l173 213h157l-186 -210z" />
<glyph unicode="l" horiz-adv-x="325" d="M294 0h-74q-75 0 -113.5 44t-38.5 105v563h130v-555q0 -47 46 -47h50v-110z" />
<glyph unicode="m" horiz-adv-x="876" d="M809 0h-130v315q0 49 -25.5 72t-60.5 23t-61 -22.5t-26 -69.5v-318h-130v315q0 49 -25.5 72t-60.5 23q-36 0 -61.5 -23t-25.5 -72v-315h-130v521h127v-48q52 54 130 54q90 0 138 -66q63 66 156 66q82 0 128 -46q57 -57 57 -148v-333z" />
<glyph unicode="n" horiz-adv-x="573" d="M506 0h-130v315q0 49 -25.5 72t-60.5 23q-36 0 -61.5 -23t-25.5 -72v-315h-130v521h127v-48q51 54 130 54q77 0 123 -46q53 -53 53 -148v-333z" />
<glyph unicode="o" d="M492 261q0 -75 -12.5 -121.5t-46.5 -81.5q-60 -64 -162 -64q-101 0 -161 64q-34 35 -46.5 81.5t-12.5 121.5q0 74 12.5 120.5t46.5 81.5q60 64 161 64q102 0 162 -64q34 -35 46.5 -81.5t12.5 -120.5zM362 261q0 96 -30 126q-23 23 -61 23q-37 0 -60 -23q-30 -30 -30 -126 q0 -97 30 -127q23 -23 60 -23q38 0 61 23q30 30 30 127z" />
<glyph unicode="p" horiz-adv-x="560" d="M509 261q0 -52 -2 -82.5t-14.5 -72t-36.5 -65.5q-47 -47 -127 -47q-79 0 -126 52v-237h-130v712h126v-49q49 55 130 55q80 0 127 -47q24 -24 36.5 -65t14.5 -71.5t2 -82.5zM379 261q0 74 -17 111.5t-71 37.5t-71 -37.5t-17 -111.5q0 -36 3 -60t11.5 -46t27 -33t46.5 -11 t46.5 11t27 33t11.5 46t3 60z" />
<glyph unicode="q" horiz-adv-x="561" d="M488 -191h-130v237q-47 -52 -127 -52t-127 47q-24 24 -36.5 65.5t-14.5 72t-2 82.5t2 82.5t14.5 71.5t36.5 65q47 47 128 47q80 0 129 -55v49h127v-712zM358 261q0 74 -17.5 111.5t-71.5 37.5t-71 -37.5t-17 -111.5q0 -36 3 -60t11.5 -46t27 -33t46.5 -11q54 0 71.5 38 t17.5 112z" />
<glyph unicode="r" horiz-adv-x="455" d="M454 478l-98 -99q-31 31 -69 31q-33 0 -58.5 -25t-25.5 -71v-314h-130v521h127v-50q20 24 55.5 40t75.5 16q74 0 123 -49z" />
<glyph unicode="s" horiz-adv-x="501" d="M465 164q0 -83 -62 -126.5t-159 -43.5q-72 0 -124.5 15t-97.5 60l85 85q49 -49 139 -49q38 0 65 13.5t27 40.5q0 43 -55 48l-82 8q-152 15 -152 146q0 78 58.5 122t142.5 44q134 0 199 -61l-80 -81q-39 35 -121 35q-37 0 -55.5 -14.5t-18.5 -35.5q0 -40 54 -45l82 -8 q76 -7 115.5 -46.5t39.5 -106.5z" />
<glyph unicode="t" horiz-adv-x="352" d="M307 0h-71q-74 0 -112.5 44t-38.5 105v258h-55v99h55v154h130v-154h92v-99h-92v-250q0 -47 45 -47h47v-110z" />
<glyph unicode="u" horiz-adv-x="573" d="M500 0h-127v48q-51 -54 -130 -54q-77 0 -123 46q-53 53 -53 148v333h130v-315q0 -49 25.5 -72t60.5 -23q36 0 61.5 23t25.5 72v315h130v-521z" />
<glyph unicode="v" horiz-adv-x="493" d="M489 521l-191 -521h-102l-192 521h137l106 -322l105 322h137z" />
<glyph unicode="w" horiz-adv-x="759" d="M755 521l-159 -521h-107l-109 327l-109 -327h-107l-160 521h138l84 -322l106 322h95l107 -322l84 322h137z" />
<glyph unicode="x" horiz-adv-x="527" d="M515 0h-156l-96 156l-95 -156h-156l180 266l-173 255h156l88 -149l89 149h156l-173 -255z" />
<glyph unicode="y" horiz-adv-x="494" d="M490 521l-223 -605q-17 -45 -39 -67q-40 -40 -112 -40h-51v117h30q28 0 41.5 9.5t23.5 37.5l22 64l-178 484h137l108 -322l104 322h137z" />
<glyph unicode="z" horiz-adv-x="478" d="M434 0h-397v99l231 305h-218v117h384v-99l-234 -305h234v-117z" />
<glyph unicode="{" horiz-adv-x="457" d="M414 -74h-102q-75 0 -112 37q-42 42 -42 111v145q0 43 -17 60q-19 19 -52 19h-46v116h46q33 0 52 19q17 17 17 60v145q0 69 42 111q37 37 112 37h102v-117h-53q-43 0 -57 -14q-16 -17 -16 -64v-135q0 -33 -13 -55.5t-25 -30t-31 -14.5q19 -7 31 -14.5t25 -30t13 -55.5 v-135q0 -47 16 -64q14 -14 57 -14h53v-117z" />
<glyph unicode="|" horiz-adv-x="350" d="M240 -74h-130v860h130v-860z" />
<glyph unicode="}" horiz-adv-x="457" d="M414 298h-46q-33 0 -52 -19q-17 -17 -17 -60v-145q0 -69 -42 -111q-37 -37 -112 -37h-102v117h53q43 0 57 14q16 17 16 64v135q0 33 13 55.5t25 30t31 14.5q-19 7 -31 14.5t-25 30t-13 55.5v135q0 47 -16 64q-14 14 -57 14h-53v117h102q75 0 112 -37q42 -42 42 -111v-145 q0 -43 17 -60q19 -19 52 -19h46v-116z" />
<glyph unicode="~" horiz-adv-x="606" d="M569 281q-47 -47 -83.5 -66.5t-81.5 -19.5q-53 0 -117 34q-46 24 -82 24q-44 0 -86 -42l-82 82q48 48 83.5 67t80.5 19q53 0 117 -34q46 -24 81 -24q45 0 87 42z" />
<glyph unicode="&#xa1;" horiz-adv-x="347" d="M224 388h-137v133h137v-133zM236 -191h-161l32 489h97z" />
<glyph unicode="&#xa2;" horiz-adv-x="499" d="M469 180q-58 -61 -136 -75v-105h-101v105q-83 17 -134 83.5t-51 177.5t51 177.5t134 83.5v85h101v-85q78 -14 136 -75l-86 -84q-31 32 -64 41v-286q33 9 64 41zM246 225v282q-21 -6 -38 -26q-31 -39 -31 -115t31 -115q15 -20 38 -26z" />
<glyph unicode="&#xa3;" horiz-adv-x="579" d="M534 0h-433v297h-61v100h61v81q0 113 73 176.5t178 63.5q58 0 100.5 -17t81.5 -56l-91 -91q-40 40 -91 40q-52 0 -82.5 -31t-30.5 -91v-75h113v-100h-113v-173h295v-124z" />
<glyph unicode="&#xa4;" horiz-adv-x="669" d="M610 96l-85 -86l-74 73q-54 -32 -117 -32q-62 0 -116 32l-74 -73l-86 86l74 73q-33 56 -33 117t33 117l-74 73l86 86l74 -73q54 32 116 32q63 0 117 -32l74 73l85 -86l-73 -73q32 -54 32 -117t-32 -117zM452 286q0 49 -34.5 83t-83.5 34t-83 -34t-34 -83t34 -83t83 -34 t83.5 34t34.5 83z" />
<glyph unicode="&#xa5;" horiz-adv-x="571" d="M568 712l-136 -270h74v-100h-125l-26 -50v-51h151v-100h-151v-141h-138v141h-152v100h152v51l-26 50h-126v100h75l-137 270h151l132 -288l132 288h150z" />
<glyph unicode="&#xa6;" horiz-adv-x="353" d="M240 436h-130v350h130v-350zM240 -74h-130v350h130v-350z" />
<glyph unicode="&#xa7;" horiz-adv-x="531" d="M473 274q0 -50 -28 -90t-62 -59q81 -41 81 -139q0 -87 -58.5 -135t-139.5 -48t-139.5 44.5t-59.5 133.5h125q2 -28 21.5 -45.5t52.5 -17.5q34 0 53.5 17.5t19.5 46.5q0 51 -70 74l-62 21q-75 25 -110.5 68t-35.5 120q0 51 28 90.5t63 58.5q-76 40 -76 131q0 73 50 123 t142 50q94 0 142.5 -48t49.5 -124h-122q-3 61 -70 61q-34 0 -52 -16.5t-18 -42.5q0 -44 67 -66l62 -20q75 -24 110.5 -68t35.5 -120zM348 269q0 43 -25 68q-23 21 -56 21q-36 0 -57 -21q-24 -24 -24 -68q0 -43 24 -67q21 -21 57 -21q35 0 56 21q25 25 25 67z" />
<glyph unicode="&#xa8;" horiz-adv-x="500" d="M416 606h-111v125h111v-125zM195 606h-111v125h111v-125z" />
<glyph unicode="&#xa9;" horiz-adv-x="844" d="M784 356q0 -150 -106 -256t-256 -106t-256 106t-106 256t106 256t256 106t256 -106t106 -256zM697 356q0 120 -79 200.5t-196 80.5t-196.5 -80.5t-79.5 -200.5t79.5 -200.5t196.5 -80.5t196 80.5t79 200.5zM561 212q-58 -52 -132 -52q-78 0 -128.5 51.5t-50.5 144.5 t50.5 145t128.5 52q71 0 132 -53l-56 -56q-38 32 -76 32q-46 0 -70 -32t-24 -88t24 -88t70 -32q38 0 76 32z" />
<glyph unicode="&#xaa;" horiz-adv-x="454" d="M392 296h-103v36q-40 -40 -101 -40q-69 0 -105 38q-35 35 -35 92q0 53 36.5 87t105.5 34h97v20q0 34 -18 49.5t-59 15.5q-29 0 -45.5 -7.5t-33.5 -26.5l-67 65q30 33 64 45.5t87 12.5q177 0 177 -147v-274zM287 449v23h-81q-27 0 -41.5 -12.5t-14.5 -34.5q0 -46 57 -46 q45 0 65 19q15 14 15 51z" />
<glyph unicode="&#xab;" horiz-adv-x="628" d="M562 27l-250 248l250 248v-155l-96 -93l96 -93v-155zM283 27l-249 248l249 248v-155l-94 -93l94 -93v-155z" />
<glyph unicode="&#xac;" d="M497 94h-121v145h-330v121h451v-266z" />
<glyph unicode="&#xad;" horiz-adv-x="426" d="M367 225h-308v121h308v-121z" />
<glyph unicode="&#xae;" horiz-adv-x="844" d="M784 356q0 -150 -106 -256t-256 -106t-256 106t-106 256t106 256t256 106t256 -106t106 -256zM698 356q0 120 -79.5 200.5t-196.5 80.5t-196.5 -80.5t-79.5 -200.5t79.5 -200.5t196.5 -80.5t196.5 80.5t79.5 200.5zM585 164h-98l-70 149h-41v-149h-86v385h157 q57 0 92.5 -35.5t35.5 -85.5q0 -37 -20 -63.5t-51 -38.5zM489 428q0 21 -15 35.5t-38 14.5h-60v-100h60q23 0 38 14.5t15 35.5z" />
<glyph unicode="&#xaf;" horiz-adv-x="500" d="M408 630h-316v87h316v-87z" />
<glyph unicode="&#xb0;" horiz-adv-x="478" d="M423 542q0 -76 -53.5 -130t-130.5 -54t-130.5 54t-53.5 130q0 77 54 131t130 54t130 -54t54 -131zM318 542q0 34 -23.5 57t-56.5 23t-55.5 -23t-22.5 -57t23 -57t56 -23t56 23t23 57z" />
<glyph unicode="&#xb1;" d="M493 341h-160v-161h-122v161h-161v121h161v161h122v-161h160v-121zM493 0h-443v122h443v-122z" />
<glyph unicode="&#xb2;" horiz-adv-x="358" d="M315 285h-272v85l156 171q22 23 22 47q0 20 -11 31.5t-31 11.5q-42 0 -42 -44h-94q0 60 38.5 94.5t97.5 34.5q60 0 98 -34.5t38 -93.5q0 -30 -12 -51.5t-40 -52.5l-105 -114h157v-85z" />
<glyph unicode="&#xb3;" horiz-adv-x="368" d="M325 412q0 -63 -40.5 -97t-100.5 -34q-59 0 -100 33t-41 99h94q0 -23 13.5 -35.5t33.5 -12.5q21 0 34 13t13 37q0 21 -13.5 34.5t-35.5 13.5h-13v81h13q22 0 33 12.5t11 30.5q0 21 -12 32.5t-30 11.5t-30 -11t-12 -31h-94q0 58 39 92.5t97 34.5q59 0 97.5 -35.5 t38.5 -90.5q0 -57 -45 -84q50 -32 50 -94z" />
<glyph unicode="&#xb4;" horiz-adv-x="500" d="M396 774l-114 -170h-87l64 170h137z" />
<glyph unicode="&#xb5;" horiz-adv-x="576" d="M503 0h-127v48q-51 -54 -130 -54q-27 0 -46 14v-199h-130v712h130v-315q0 -49 25.5 -72t60.5 -23q36 0 61.5 23t25.5 72v315h130v-521z" />
<glyph unicode="&#xb6;" horiz-adv-x="668" d="M585 -191h-130v779h-100v-779h-130v499q-76 0 -133 59.5t-57 141.5q0 97 62.5 150t168.5 53h319v-903z" />
<glyph unicode="&#xb7;" horiz-adv-x="285" d="M217 212h-149v148h149v-148z" />
<glyph unicode="&#xb8;" horiz-adv-x="500" d="M325 -60l-44 -146h-121l69 146h96z" />
<glyph unicode="&#xb9;" horiz-adv-x="292" d="M223 285h-95v321l-90 -78v106l90 78h95v-427z" />
<glyph unicode="&#xba;" horiz-adv-x="462" d="M407 504q0 -59 -10 -95.5t-38 -65.5q-49 -51 -128 -51t-128 51q-28 29 -38 65.5t-10 95.5t10.5 96t37.5 66q49 51 128 51t128 -51q27 -29 37.5 -66t10.5 -96zM302 504q0 78 -23 101q-18 18 -48 18t-48 -18q-23 -23 -23 -101q0 -77 23 -100q18 -18 48 -18t48 18 q23 23 23 100z" />
<glyph unicode="&#xbb;" horiz-adv-x="628" d="M595 275l-250 -248v155l94 93l-94 93v155zM316 275l-249 -248v155l95 93l-95 93v155z" />
<glyph unicode="&#xbc;" horiz-adv-x="836" d="M796 57h-33v-57h-90v57h-176v89l143 281h103l-144 -281h74v62h90v-62h33v-89zM625 712l-337 -712h-102l337 712h102zM223 285h-95v321l-90 -78v106l90 78h95v-427z" />
<glyph unicode="&#xbd;" horiz-adv-x="862" d="M819 0h-272v85l156 171q23 24 23 47q0 20 -11.5 31.5t-31.5 11.5q-41 0 -41 -44h-95q0 60 38.5 94.5t97.5 34.5q60 0 98 -34.5t38 -93.5q0 -30 -12 -51.5t-40 -52.5l-105 -114h157v-85zM620 712l-337 -712h-101l337 712h101zM223 285h-95v321l-90 -78v106l90 78h95v-427z " />
<glyph unicode="&#xbe;" horiz-adv-x="865" d="M825 57h-33v-57h-90v57h-176v89l143 281h103l-144 -281h74v62h90v-62h33v-89zM657 712l-337 -712h-102l337 712h102zM325 412q0 -63 -40.5 -97t-100.5 -34q-59 0 -100 33t-41 99h94q0 -23 13.5 -35.5t33.5 -12.5q21 0 34 13t13 37q0 21 -13.5 34.5t-35.5 13.5h-13v81h13 q22 0 33 12.5t11 30.5q0 21 -12 32.5t-30 11.5t-30 -11t-12 -31h-94q0 58 39 92.5t97 34.5q59 0 97.5 -35.5t38.5 -90.5q0 -57 -45 -84q50 -32 50 -94z" />
<glyph unicode="&#xbf;" horiz-adv-x="523" d="M311 388h-138v133h138v-133zM457 4q0 -91 -60.5 -146t-150.5 -55q-88 0 -149 54t-61 146q0 60 49 125l74 99q18 23 18 51v20h130v-30q0 -54 -38 -104l-74 -95q-29 -38 -29 -67q0 -36 21.5 -59t58.5 -23q38 0 59.5 24t21.5 60h130z" />
<glyph unicode="&#xc0;" horiz-adv-x="638" d="M633 0h-145l-42 126h-253l-43 -126h-145l259 712h109zM409 243l-87 259l-90 -259h177zM372 781h-87l-114 170h137z" />
<glyph unicode="&#xc1;" horiz-adv-x="638" d="M633 0h-145l-42 126h-253l-43 -126h-145l259 712h109zM409 243l-87 259l-90 -259h177zM463 951l-114 -170h-87l64 170h137z" />
<glyph unicode="&#xc2;" horiz-adv-x="638" d="M633 0h-145l-42 126h-253l-43 -126h-145l259 712h109zM409 243l-87 259l-90 -259h177zM501 781h-101l-83 91l-83 -91h-101l132 169h104z" />
<glyph unicode="&#xc3;" horiz-adv-x="638" d="M633 0h-145l-42 126h-253l-43 -126h-145l259 712h109zM409 243l-87 259l-90 -259h177zM497 851q-59 -59 -113 -59q-37 0 -77 23q-31 18 -56 18q-30 0 -59 -29l-56 57q33 33 58 46t54 13q39 0 77 -23q30 -18 55 -18q30 0 59 29z" />
<glyph unicode="&#xc4;" horiz-adv-x="638" d="M633 0h-145l-42 126h-253l-43 -126h-145l259 712h109zM409 243l-87 259l-90 -259h177zM483 783h-111v125h111v-125zM262 783h-111v125h111v-125z" />
<glyph unicode="&#xc5;" horiz-adv-x="638" d="M633 0h-145l-42 126h-253l-43 -126h-145l259 712h109zM409 243l-87 259l-90 -259h177zM448 884q0 -54 -38.5 -92.5t-92.5 -38.5t-92.5 38.5t-38.5 92.5t38.5 92.5t92.5 38.5t92.5 -38t38.5 -93zM375 884q0 24 -17 41t-41 17t-41 -17t-17 -41t17 -41.5t41 -17.5t41 17.5 t17 41.5z" />
<glyph unicode="&#xc6;" horiz-adv-x="979" d="M926 0h-468v156h-225l-81 -156h-149l372 712h551v-124h-330v-168h282v-124h-282v-172h330v-124zM458 273v315l-165 -315h165z" />
<glyph unicode="&#xc7;" horiz-adv-x="620" d="M583 219q-18 -109 -89 -167t-173 -58q-114 0 -192 78q-26 26 -41 54.5t-21 71.5t-7 69t-1 89t1 89t7 69t21 71.5t41 54.5q78 78 192 78q103 0 173.5 -58t88.5 -167h-141q-25 101 -120 101q-57 0 -89 -37q-21 -23 -28 -62t-7 -139t7 -139t28 -62q32 -37 89 -37 q95 0 120 101h141zM379 -60l-44 -146h-121l69 146h96z" />
<glyph unicode="&#xc8;" horiz-adv-x="605" d="M552 0h-469v712h469v-124h-330v-167h281v-124h-281v-173h330v-124zM365 781h-87l-114 170h137z" />
<glyph unicode="&#xc9;" horiz-adv-x="605" d="M552 0h-469v712h469v-124h-330v-167h281v-124h-281v-173h330v-124zM455 951l-114 -170h-87l64 170h137z" />
<glyph unicode="&#xca;" horiz-adv-x="605" d="M552 0h-469v712h469v-124h-330v-167h281v-124h-281v-173h330v-124zM494 781h-101l-83 91l-83 -91h-101l132 169h104z" />
<glyph unicode="&#xcb;" horiz-adv-x="605" d="M552 0h-469v712h469v-124h-330v-167h281v-124h-281v-173h330v-124zM476 783h-111v125h111v-125zM255 783h-111v125h111v-125z" />
<glyph unicode="&#xcc;" horiz-adv-x="305" d="M222 0h-139v712h139v-712zM284 781h-87l-114 170h137z" />
<glyph unicode="&#xcd;" horiz-adv-x="305" d="M222 0h-139v712h139v-712zM284 951l-114 -170h-87l64 170h137z" />
<glyph unicode="&#xce;" horiz-adv-x="305" d="M222 0h-139v712h139v-712zM451 781h-101l-83 91l-83 -91h-101l132 169h104z" />
<glyph unicode="&#xcf;" horiz-adv-x="305" d="M222 0h-139v712h139v-712zM415 783h-111v125h111v-125zM194 783h-111v125h111v-125z" />
<glyph unicode="&#xd0;" horiz-adv-x="682" d="M623 356q0 -86 -1.5 -118t-15.5 -76t-46 -79q-75 -83 -199 -83h-255v307h-69v106h69v299h257q123 0 197 -84q20 -22 32.5 -48t18.5 -41.5t9 -57t3 -53v-72.5zM484 354q0 93 -4.5 126.5t-20.5 56.5q-37 52 -109 52h-105v-176h116v-106h-116v-184h105q76 0 111 53 q15 22 19 52.5t4 125.5z" />
<glyph unicode="&#xd1;" horiz-adv-x="711" d="M628 0h-124l-282 437v-437h-139v712h124l282 -436v436h139v-712zM536 851q-59 -59 -113 -59q-37 0 -77 23q-31 18 -56 18q-30 0 -59 -29l-56 57q33 33 58 46t54 13q39 0 77 -23q30 -18 55 -18q30 0 59 29z" />
<glyph unicode="&#xd2;" horiz-adv-x="644" d="M585 356q0 -61 -1 -89t-7 -69.5t-21.5 -70.5t-41.5 -55q-78 -78 -192 -78q-115 0 -193 78q-26 26 -41 54.5t-21 71.5t-7 69t-1 89t1 89t7 69t21 71.5t41 54.5q78 78 193 78q114 0 192 -78q26 -26 41.5 -55t21.5 -70.5t7 -69.5t1 -89zM446 356q0 100 -7 138.5t-28 61.5 q-33 38 -89 38q-57 0 -90 -38q-21 -23 -27.5 -61t-6.5 -139t6.5 -139t27.5 -61q33 -38 90 -38q56 0 89 38q21 23 28 61.5t7 138.5zM377 781h-87l-114 170h137z" />
<glyph unicode="&#xd3;" horiz-adv-x="644" d="M585 356q0 -61 -1 -89t-7 -69.5t-21.5 -70.5t-41.5 -55q-78 -78 -192 -78q-115 0 -193 78q-26 26 -41 54.5t-21 71.5t-7 69t-1 89t1 89t7 69t21 71.5t41 54.5q78 78 193 78q114 0 192 -78q26 -26 41.5 -55t21.5 -70.5t7 -69.5t1 -89zM446 356q0 100 -7 138.5t-28 61.5 q-33 38 -89 38q-57 0 -90 -38q-21 -23 -27.5 -61t-6.5 -139t6.5 -139t27.5 -61q33 -38 90 -38q56 0 89 38q21 23 28 61.5t7 138.5zM468 951l-114 -170h-87l64 170h137z" />
<glyph unicode="&#xd4;" horiz-adv-x="644" d="M585 356q0 -61 -1 -89t-7 -69.5t-21.5 -70.5t-41.5 -55q-78 -78 -192 -78q-115 0 -193 78q-26 26 -41 54.5t-21 71.5t-7 69t-1 89t1 89t7 69t21 71.5t41 54.5q78 78 193 78q114 0 192 -78q26 -26 41.5 -55t21.5 -70.5t7 -69.5t1 -89zM446 356q0 100 -7 138.5t-28 61.5 q-33 38 -89 38q-57 0 -90 -38q-21 -23 -27.5 -61t-6.5 -139t6.5 -139t27.5 -61q33 -38 90 -38q56 0 89 38q21 23 28 61.5t7 138.5zM506 781h-101l-83 91l-83 -91h-101l132 169h104z" />
<glyph unicode="&#xd5;" horiz-adv-x="644" d="M585 356q0 -61 -1 -89t-7 -69.5t-21.5 -70.5t-41.5 -55q-78 -78 -192 -78q-115 0 -193 78q-26 26 -41 54.5t-21 71.5t-7 69t-1 89t1 89t7 69t21 71.5t41 54.5q78 78 193 78q114 0 192 -78q26 -26 41.5 -55t21.5 -70.5t7 -69.5t1 -89zM446 356q0 100 -7 138.5t-28 61.5 q-33 38 -89 38q-57 0 -90 -38q-21 -23 -27.5 -61t-6.5 -139t6.5 -139t27.5 -61q33 -38 90 -38q56 0 89 38q21 23 28 61.5t7 138.5zM502 851q-59 -59 -113 -59q-37 0 -77 23q-31 18 -56 18q-30 0 -59 -29l-56 57q33 33 58 46t54 13q39 0 77 -23q30 -18 55 -18q30 0 59 29z " />
<glyph unicode="&#xd6;" horiz-adv-x="644" d="M585 356q0 -61 -1 -89t-7 -69.5t-21.5 -70.5t-41.5 -55q-78 -78 -192 -78q-115 0 -193 78q-26 26 -41 54.5t-21 71.5t-7 69t-1 89t1 89t7 69t21 71.5t41 54.5q78 78 193 78q114 0 192 -78q26 -26 41.5 -55t21.5 -70.5t7 -69.5t1 -89zM446 356q0 100 -7 138.5t-28 61.5 q-33 38 -89 38q-57 0 -90 -38q-21 -23 -27.5 -61t-6.5 -139t6.5 -139t27.5 -61q33 -38 90 -38q56 0 89 38q21 23 28 61.5t7 138.5zM488 783h-111v125h111v-125zM267 783h-111v125h111v-125z" />
<glyph unicode="&#xd7;" d="M494 145l-82 -82l-141 141l-140 -141l-82 82l141 141l-141 141l82 82l140 -141l141 141l82 -82l-141 -141z" />
<glyph unicode="&#xd8;" horiz-adv-x="652" d="M585 356q0 -61 -1 -89t-7 -69.5t-21.5 -70.5t-41.5 -55q-78 -78 -192 -78q-65 0 -113 22l-29 -60h-99l53 111l-5 5q-26 26 -41 54.5t-21 71.5t-7 69t-1 89t1 89t7 69t21 71.5t41 54.5q78 78 193 78q65 0 113 -22l29 60h98l-53 -111l5 -5q26 -26 41.5 -55t21.5 -70.5 t7 -69.5t1 -89zM385 578q-26 16 -63 16q-57 0 -90 -38q-21 -23 -27.5 -61t-6.5 -139q0 -114 9 -151zM446 356q0 110 -10 151l-178 -372q28 -17 64 -17q56 0 89 38q21 23 28 61.5t7 138.5z" />
<glyph unicode="&#xd9;" horiz-adv-x="668" d="M596 244q0 -111 -75 -180.5t-187 -69.5t-187 69.5t-75 180.5v468h139v-463q0 -61 33 -96t90 -35t90.5 35t33.5 96v463h138v-468zM389 781h-87l-114 170h137z" />
<glyph unicode="&#xda;" horiz-adv-x="668" d="M596 244q0 -111 -75 -180.5t-187 -69.5t-187 69.5t-75 180.5v468h139v-463q0 -61 33 -96t90 -35t90.5 35t33.5 96v463h138v-468zM480 951l-114 -170h-87l64 170h137z" />
<glyph unicode="&#xdb;" horiz-adv-x="668" d="M596 244q0 -111 -75 -180.5t-187 -69.5t-187 69.5t-75 180.5v468h139v-463q0 -61 33 -96t90 -35t90.5 35t33.5 96v463h138v-468zM518 781h-101l-83 91l-83 -91h-101l132 169h104z" />
<glyph unicode="&#xdc;" horiz-adv-x="668" d="M596 244q0 -111 -75 -180.5t-187 -69.5t-187 69.5t-75 180.5v468h139v-463q0 -61 33 -96t90 -35t90.5 35t33.5 96v463h138v-468zM500 783h-111v125h111v-125zM279 783h-111v125h111v-125z" />
<glyph unicode="&#xdd;" horiz-adv-x="572" d="M569 712l-214 -420v-292h-138v292l-214 420h151l133 -287l131 287h151zM431 951l-114 -170h-87l64 170h137z" />
<glyph unicode="&#xde;" horiz-adv-x="633" d="M594 360q0 -94 -64 -158t-171 -64h-137v-138h-139v712h139v-131h137q107 0 171 -63.5t64 -157.5zM455 360q0 44 -28 70.5t-75 26.5h-130v-195h130q47 0 75 27t28 71z" />
<glyph unicode="&#xdf;" horiz-adv-x="574" d="M516 161q0 -79 -41 -119q-42 -42 -126 -42h-52v110h26q29 0 45 15q17 15 17 47v144q0 30 -15 45q-16 16 -45 16h-28v102h28q26 0 43 15t17 45q0 28 -19 45q-22 21 -70 21q-50 0 -71.5 -23.5t-21.5 -70.5v-511h-130v521q0 100 61.5 148.5t163.5 48.5q99 0 158 -44t59 -131 q0 -76 -61 -113q31 -16 46.5 -40.5t15.5 -68.5v-160z" />
<glyph unicode="&#xe0;" horiz-adv-x="534" d="M467 0h-127v45q-27 -27 -55.5 -38.5t-72.5 -11.5q-87 0 -133 46q-43 45 -43 117q0 66 45.5 108.5t132.5 42.5h123v26q0 43 -23 62.5t-74 19.5q-37 0 -58 -9.5t-42 -33.5l-83 81q37 41 79 56.5t109 15.5q222 0 222 -184v-343zM337 192v28h-103q-35 0 -54 -15.5t-19 -43.5 q0 -60 75 -60q56 0 82 25q19 18 19 66zM316 604h-87l-114 170h137z" />
<glyph unicode="&#xe1;" horiz-adv-x="534" d="M467 0h-127v45q-27 -27 -55.5 -38.5t-72.5 -11.5q-87 0 -133 46q-43 45 -43 117q0 66 45.5 108.5t132.5 42.5h123v26q0 43 -23 62.5t-74 19.5q-37 0 -58 -9.5t-42 -33.5l-83 81q37 41 79 56.5t109 15.5q222 0 222 -184v-343zM337 192v28h-103q-35 0 -54 -15.5t-19 -43.5 q0 -60 75 -60q56 0 82 25q19 18 19 66zM407 774l-114 -170h-87l64 170h137z" />
<glyph unicode="&#xe2;" horiz-adv-x="534" d="M467 0h-127v45q-27 -27 -55.5 -38.5t-72.5 -11.5q-87 0 -133 46q-43 45 -43 117q0 66 45.5 108.5t132.5 42.5h123v26q0 43 -23 62.5t-74 19.5q-37 0 -58 -9.5t-42 -33.5l-83 81q37 41 79 56.5t109 15.5q222 0 222 -184v-343zM337 192v28h-103q-35 0 -54 -15.5t-19 -43.5 q0 -60 75 -60q56 0 82 25q19 18 19 66zM445 604h-101l-83 91l-83 -91h-101l132 169h104z" />
<glyph unicode="&#xe3;" horiz-adv-x="534" d="M467 0h-127v45q-27 -27 -55.5 -38.5t-72.5 -11.5q-87 0 -133 46q-43 45 -43 117q0 66 45.5 108.5t132.5 42.5h123v26q0 43 -23 62.5t-74 19.5q-37 0 -58 -9.5t-42 -33.5l-83 81q37 41 79 56.5t109 15.5q222 0 222 -184v-343zM337 192v28h-103q-35 0 -54 -15.5t-19 -43.5 q0 -60 75 -60q56 0 82 25q19 18 19 66zM441 674q-59 -59 -113 -59q-37 0 -77 23q-31 18 -56 18q-30 0 -59 -29l-56 57q33 33 58 46t54 13q39 0 77 -23q30 -18 55 -18q30 0 59 29z" />
<glyph unicode="&#xe4;" horiz-adv-x="534" d="M467 0h-127v45q-27 -27 -55.5 -38.5t-72.5 -11.5q-87 0 -133 46q-43 45 -43 117q0 66 45.5 108.5t132.5 42.5h123v26q0 43 -23 62.5t-74 19.5q-37 0 -58 -9.5t-42 -33.5l-83 81q37 41 79 56.5t109 15.5q222 0 222 -184v-343zM337 192v28h-103q-35 0 -54 -15.5t-19 -43.5 q0 -60 75 -60q56 0 82 25q19 18 19 66zM427 606h-111v125h111v-125zM206 606h-111v125h111v-125z" />
<glyph unicode="&#xe5;" horiz-adv-x="534" d="M467 0h-127v45q-27 -27 -55.5 -38.5t-72.5 -11.5q-87 0 -133 46q-43 45 -43 117q0 66 45.5 108.5t132.5 42.5h123v26q0 43 -23 62.5t-74 19.5q-37 0 -58 -9.5t-42 -33.5l-83 81q37 41 79 56.5t109 15.5q222 0 222 -184v-343zM337 192v28h-103q-35 0 -54 -15.5t-19 -43.5 q0 -60 75 -60q56 0 82 25q19 18 19 66zM392 715q0 -54 -38.5 -92.5t-92.5 -38.5t-92.5 38.5t-38.5 92.5t38.5 92.5t92.5 38.5t92.5 -38t38.5 -93zM319 715q0 24 -17 41t-41 17t-41 -17t-17 -41t17 -41.5t41 -17.5t41 17.5t17 41.5z" />
<glyph unicode="&#xe6;" horiz-adv-x="838" d="M791 220h-326q0 -52 30.5 -84t83.5 -32q41 0 66.5 11.5t51.5 37.5l79 -77q-43 -43 -87 -62.5t-111 -19.5q-120 0 -183 73q-40 -44 -81.5 -58.5t-101.5 -14.5q-86 0 -133 47q-43 45 -43 117q0 66 45.5 108.5t132.5 42.5h123v26q0 43 -23 62.5t-74 19.5q-37 0 -58 -9.5 t-42 -33.5l-83 81q37 41 79 56.5t109 15.5q119 0 171 -57q56 57 148 57q106 0 166.5 -69.5t60.5 -179.5v-58zM663 309q-1 31 -12 56q-24 54 -87 54t-87 -54q-11 -25 -12 -56h198zM337 192v28h-103q-35 0 -54 -15.5t-19 -43.5q0 -60 75 -60q56 0 82 25q19 18 19 66z" />
<glyph unicode="&#xe7;" horiz-adv-x="482" d="M452 65q-68 -71 -172 -71q-33 0 -64 7.5t-62.5 26t-54.5 48t-37.5 77t-14.5 108.5t14.5 108.5t37.5 76.5t54.5 48t62.5 26t64 7q105 0 172 -70l-88 -88q-38 41 -84 41t-74 -34q-29 -36 -29 -115q0 -80 29 -116q28 -34 74 -34t84 41zM325 -60l-44 -146h-121l69 146h96z " />
<glyph unicode="&#xe8;" horiz-adv-x="548" d="M501 220h-326q0 -52 30.5 -84t83.5 -32q41 0 66.5 11.5t51.5 37.5l79 -77q-43 -43 -87 -62.5t-111 -19.5q-50 0 -90.5 12.5t-75.5 41.5t-55 83t-20 130q0 125 62 195.5t165 70.5q106 0 166.5 -69.5t60.5 -179.5v-58zM373 309q-1 31 -12 56q-24 54 -87 54t-87 -54 q-11 -25 -12 -56h198zM332 604h-87l-114 170h137z" />
<glyph unicode="&#xe9;" horiz-adv-x="548" d="M501 220h-326q0 -52 30.5 -84t83.5 -32q41 0 66.5 11.5t51.5 37.5l79 -77q-43 -43 -87 -62.5t-111 -19.5q-50 0 -90.5 12.5t-75.5 41.5t-55 83t-20 130q0 125 62 195.5t165 70.5q106 0 166.5 -69.5t60.5 -179.5v-58zM373 309q-1 31 -12 56q-24 54 -87 54t-87 -54 q-11 -25 -12 -56h198zM423 774l-114 -170h-87l64 170h137z" />
<glyph unicode="&#xea;" horiz-adv-x="548" d="M501 220h-326q0 -52 30.5 -84t83.5 -32q41 0 66.5 11.5t51.5 37.5l79 -77q-43 -43 -87 -62.5t-111 -19.5q-50 0 -90.5 12.5t-75.5 41.5t-55 83t-20 130q0 125 62 195.5t165 70.5q106 0 166.5 -69.5t60.5 -179.5v-58zM373 309q-1 31 -12 56q-24 54 -87 54t-87 -54 q-11 -25 -12 -56h198zM461 604h-101l-83 91l-83 -91h-101l132 169h104z" />
<glyph unicode="&#xeb;" horiz-adv-x="548" d="M501 220h-326q0 -52 30.5 -84t83.5 -32q41 0 66.5 11.5t51.5 37.5l79 -77q-43 -43 -87 -62.5t-111 -19.5q-50 0 -90.5 12.5t-75.5 41.5t-55 83t-20 130q0 125 62 195.5t165 70.5q106 0 166.5 -69.5t60.5 -179.5v-58zM373 309q-1 31 -12 56q-24 54 -87 54t-87 -54 q-11 -25 -12 -56h198zM443 606h-111v125h111v-125zM222 606h-111v125h111v-125z" />
<glyph unicode="&#xec;" horiz-adv-x="275" d="M203 0h-130v521h130v-521zM274 604h-87l-114 170h137z" />
<glyph unicode="&#xed;" horiz-adv-x="275" d="M203 0h-130v521h130v-521zM274 774l-114 -170h-87l64 170h137z" />
<glyph unicode="&#xee;" horiz-adv-x="275" d="M203 0h-130v521h130v-521zM441 604h-101l-83 91l-83 -91h-101l132 169h104z" />
<glyph unicode="&#xef;" horiz-adv-x="275" d="M203 0h-130v521h130v-521zM405 606h-111v125h111v-125zM184 606h-111v125h111v-125z" />
<glyph unicode="&#xf0;" d="M486 254q0 -73 -12.5 -118t-45.5 -80q-60 -62 -157 -62t-157 62q-33 35 -45.5 80t-12.5 118q0 72 12.5 117t45.5 80q32 34 89 49q43 11 76 7l-34 62h-114v91h68l-31 60h139l31 -60h92v-91h-46l40 -77q37 -72 49.5 -119t12.5 -119zM356 254q0 92 -27 120q-22 22 -58 22 q-35 0 -57 -22q-28 -29 -28 -120q0 -92 28 -121q22 -22 57 -22q36 0 58 22q27 28 27 121z" />
<glyph unicode="&#xf1;" horiz-adv-x="573" d="M506 0h-130v315q0 49 -25.5 72t-60.5 23q-36 0 -61.5 -23t-25.5 -72v-315h-130v521h127v-48q51 54 130 54q77 0 123 -46q53 -53 53 -148v-333zM470 674q-59 -59 -113 -59q-37 0 -77 23q-31 18 -56 18q-30 0 -59 -29l-56 57q33 33 58 46t54 13q39 0 77 -23q30 -18 55 -18 q30 0 59 29z" />
<glyph unicode="&#xf2;" d="M492 261q0 -75 -12.5 -121.5t-46.5 -81.5q-60 -64 -162 -64q-101 0 -161 64q-34 35 -46.5 81.5t-12.5 121.5q0 74 12.5 120.5t46.5 81.5q60 64 161 64q102 0 162 -64q34 -35 46.5 -81.5t12.5 -120.5zM362 261q0 96 -30 126q-23 23 -61 23q-37 0 -60 -23q-30 -30 -30 -126 q0 -97 30 -127q23 -23 60 -23q38 0 61 23q30 30 30 127zM323 604h-87l-114 170h137z" />
<glyph unicode="&#xf3;" d="M492 261q0 -75 -12.5 -121.5t-46.5 -81.5q-60 -64 -162 -64q-101 0 -161 64q-34 35 -46.5 81.5t-12.5 121.5q0 74 12.5 120.5t46.5 81.5q60 64 161 64q102 0 162 -64q34 -35 46.5 -81.5t12.5 -120.5zM362 261q0 96 -30 126q-23 23 -61 23q-37 0 -60 -23q-30 -30 -30 -126 q0 -97 30 -127q23 -23 60 -23q38 0 61 23q30 30 30 127zM418 774l-114 -170h-87l64 170h137z" />
<glyph unicode="&#xf4;" d="M492 261q0 -75 -12.5 -121.5t-46.5 -81.5q-60 -64 -162 -64q-101 0 -161 64q-34 35 -46.5 81.5t-12.5 121.5q0 74 12.5 120.5t46.5 81.5q60 64 161 64q102 0 162 -64q34 -35 46.5 -81.5t12.5 -120.5zM362 261q0 96 -30 126q-23 23 -61 23q-37 0 -60 -23q-30 -30 -30 -126 q0 -97 30 -127q23 -23 60 -23q38 0 61 23q30 30 30 127zM456 604h-101l-83 91l-83 -91h-101l132 169h104z" />
<glyph unicode="&#xf5;" d="M492 261q0 -75 -12.5 -121.5t-46.5 -81.5q-60 -64 -162 -64q-101 0 -161 64q-34 35 -46.5 81.5t-12.5 121.5q0 74 12.5 120.5t46.5 81.5q60 64 161 64q102 0 162 -64q34 -35 46.5 -81.5t12.5 -120.5zM362 261q0 96 -30 126q-23 23 -61 23q-37 0 -60 -23q-30 -30 -30 -126 q0 -97 30 -127q23 -23 60 -23q38 0 61 23q30 30 30 127zM452 674q-59 -59 -113 -59q-37 0 -77 23q-31 18 -56 18q-30 0 -59 -29l-56 57q33 33 58 46t54 13q39 0 77 -23q30 -18 55 -18q30 0 59 29z" />
<glyph unicode="&#xf6;" d="M492 261q0 -75 -12.5 -121.5t-46.5 -81.5q-60 -64 -162 -64q-101 0 -161 64q-34 35 -46.5 81.5t-12.5 121.5q0 74 12.5 120.5t46.5 81.5q60 64 161 64q102 0 162 -64q34 -35 46.5 -81.5t12.5 -120.5zM362 261q0 96 -30 126q-23 23 -61 23q-37 0 -60 -23q-30 -30 -30 -126 q0 -97 30 -127q23 -23 60 -23q38 0 61 23q30 30 30 127zM438 606h-111v125h111v-125zM217 606h-111v125h111v-125z" />
<glyph unicode="&#xf7;" d="M337 423h-130v130h130v-130zM497 225h-451v121h451v-121zM337 18h-130v130h130v-130z" />
<glyph unicode="&#xf8;" d="M492 261q0 -75 -12.5 -121.5t-46.5 -81.5q-60 -64 -162 -64q-58 0 -104 23l-36 -61h-79l59 101l-1 1q-34 34 -46.5 80.5t-12.5 122.5q0 74 12.5 120.5t46.5 81.5q60 64 161 64q61 0 105 -22l35 60h80l-60 -101l2 -1q34 -35 46.5 -81.5t12.5 -120.5zM320 397 q-21 13 -49 13q-37 0 -60 -23q-30 -30 -30 -126q0 -58 7 -86zM362 261q0 53 -8 85l-131 -222q21 -13 48 -13q38 0 61 23q30 30 30 127z" />
<glyph unicode="&#xf9;" horiz-adv-x="573" d="M500 0h-127v48q-51 -54 -130 -54q-77 0 -123 46q-53 53 -53 148v333h130v-315q0 -49 25.5 -72t60.5 -23q36 0 61.5 23t25.5 72v315h130v-521zM338 604h-87l-114 170h137z" />
<glyph unicode="&#xfa;" horiz-adv-x="573" d="M500 0h-127v48q-51 -54 -130 -54q-77 0 -123 46q-53 53 -53 148v333h130v-315q0 -49 25.5 -72t60.5 -23q36 0 61.5 23t25.5 72v315h130v-521zM429 774l-114 -170h-87l64 170h137z" />
<glyph unicode="&#xfb;" horiz-adv-x="573" d="M500 0h-127v48q-51 -54 -130 -54q-77 0 -123 46q-53 53 -53 148v333h130v-315q0 -49 25.5 -72t60.5 -23q36 0 61.5 23t25.5 72v315h130v-521zM467 604h-101l-83 91l-83 -91h-101l132 169h104z" />
<glyph unicode="&#xfc;" horiz-adv-x="573" d="M500 0h-127v48q-51 -54 -130 -54q-77 0 -123 46q-53 53 -53 148v333h130v-315q0 -49 25.5 -72t60.5 -23q36 0 61.5 23t25.5 72v315h130v-521zM449 606h-111v125h111v-125zM228 606h-111v125h111v-125z" />
<glyph unicode="&#xfd;" horiz-adv-x="494" d="M490 521l-223 -605q-17 -45 -39 -67q-40 -40 -112 -40h-51v117h30q28 0 41.5 9.5t23.5 37.5l22 64l-178 484h137l108 -322l104 322h137zM390 774l-114 -170h-87l64 170h137z" />
<glyph unicode="&#xfe;" horiz-adv-x="562" d="M509 261q0 -52 -2 -82.5t-14.5 -72t-36.5 -65.5q-47 -47 -127 -47q-79 0 -126 52v-237h-130v903h130v-237q47 52 126 52q80 0 127 -47q24 -24 36.5 -65t14.5 -71.5t2 -82.5zM379 261q0 74 -17 111.5t-71 37.5t-71 -37.5t-17 -111.5q0 -36 3 -60t11.5 -46t27 -33t46.5 -11 t46.5 11t27 33t11.5 46t3 60z" />
<glyph unicode="&#xff;" horiz-adv-x="494" d="M490 521l-223 -605q-17 -45 -39 -67q-40 -40 -112 -40h-51v117h30q28 0 41.5 9.5t23.5 37.5l22 64l-178 484h137l108 -322l104 322h137zM410 606h-111v125h111v-125zM189 606h-111v125h111v-125z" />
<glyph unicode="&#x152;" horiz-adv-x="966" d="M912 0h-466v44q-47 -50 -128 -50q-114 0 -189 75q-26 26 -41 55t-21 71.5t-7 71t-1 89.5t1 89.5t7 71t21 71.5t41 55q75 75 189 75q81 0 128 -50v44h465v-123h-327q0 -15 0.5 -85t0.5 -84h278v-122h-278q0 -14 -0.5 -87t-0.5 -88h328v-123zM446 356q0 100 -7 138.5 t-28 61.5q-33 38 -89 38q-57 0 -90 -38q-21 -23 -27.5 -61t-6.5 -139t6.5 -139t27.5 -61q33 -38 90 -38q56 0 89 38q21 23 28 61.5t7 138.5z" />
<glyph unicode="&#x153;" horiz-adv-x="863" d="M816 220h-326q0 -52 30.5 -84t83.5 -32q41 0 66 11.5t51 37.5l80 -77q-43 -43 -87 -62.5t-111 -19.5q-115 0 -174 66q-54 -66 -158 -66q-101 0 -161 64q-34 35 -46.5 81.5t-12.5 121.5q0 74 12.5 120.5t46.5 81.5q60 64 161 64q106 0 161 -69q57 69 157 69 q106 0 166.5 -69.5t60.5 -179.5v-58zM687 309q-1 33 -11 56q-24 54 -87 54q-64 0 -88 -54q-10 -23 -11 -56h197zM362 261q0 96 -30 126q-23 23 -61 23q-37 0 -60 -23q-30 -30 -30 -126q0 -97 30 -127q23 -23 60 -23q38 0 61 23q30 30 30 127z" />
<glyph unicode="&#x178;" horiz-adv-x="572" d="M569 712l-214 -420v-292h-138v292l-214 420h151l133 -287l131 287h151zM451 783h-111v125h111v-125zM230 783h-111v125h111v-125z" />
<glyph unicode="&#x2c6;" horiz-adv-x="500" d="M434 604h-101l-83 91l-83 -91h-101l132 169h104z" />
<glyph unicode="&#x2dc;" horiz-adv-x="500" d="M430 674q-59 -59 -113 -59q-37 0 -77 23q-31 18 -56 18q-30 0 -59 -29l-56 57q33 33 58 46t54 13q39 0 77 -23q30 -18 55 -18q30 0 59 29z" />
<glyph unicode="&#x2000;" horiz-adv-x="507" />
<glyph unicode="&#x2001;" horiz-adv-x="1015" />
<glyph unicode="&#x2002;" horiz-adv-x="507" />
<glyph unicode="&#x2003;" horiz-adv-x="1015" />
<glyph unicode="&#x2004;" horiz-adv-x="338" />
<glyph unicode="&#x2005;" horiz-adv-x="253" />
<glyph unicode="&#x2006;" horiz-adv-x="169" />
<glyph unicode="&#x2007;" horiz-adv-x="169" />
<glyph unicode="&#x2008;" horiz-adv-x="126" />
<glyph unicode="&#x2009;" horiz-adv-x="203" />
<glyph unicode="&#x200a;" horiz-adv-x="56" />
<glyph unicode="&#x2010;" horiz-adv-x="426" d="M367 225h-308v121h308v-121z" />
<glyph unicode="&#x2011;" horiz-adv-x="426" d="M367 225h-308v121h308v-121z" />
<glyph unicode="&#x2013;" d="M493 225h-443v121h443v-121z" />
<glyph unicode="&#x2014;" horiz-adv-x="1027" d="M968 226h-909v125h909v-125z" />
<glyph unicode="&#x2018;" horiz-adv-x="273" d="M204 589h-136v123l136 105v-228z" />
<glyph unicode="&#x2019;" horiz-adv-x="273" d="M204 588l-136 -103v227h136v-124z" />
<glyph unicode="&#x201a;" horiz-adv-x="271" d="M204 0l-136 -104v228h136v-124z" />
<glyph unicode="&#x201c;" horiz-adv-x="482" d="M414 589h-136v123l136 105v-228zM203 589h-135v123l135 105v-228z" />
<glyph unicode="&#x201d;" horiz-adv-x="482" d="M414 588l-136 -103v227h136v-124zM203 588l-135 -103v227h135v-124z" />
<glyph unicode="&#x201e;" horiz-adv-x="485" d="M414 0l-136 -104v228h136v-124zM203 0l-135 -104v228h135v-124z" />
<glyph unicode="&#x2022;" horiz-adv-x="493" d="M409 334q0 -68 -47.5 -115.5t-115.5 -47.5t-115.5 47.5t-47.5 115.5t47.5 115.5t115.5 47.5t115.5 -47.5t47.5 -115.5z" />
<glyph unicode="&#x2026;" horiz-adv-x="846" d="M778 0h-141v141h141v-141zM493 0h-141v141h141v-141zM210 0h-142v141h142v-141z" />
<glyph unicode="&#x202f;" horiz-adv-x="203" />
<glyph unicode="&#x2039;" horiz-adv-x="350" d="M283 27l-249 248l249 248v-155l-94 -93l94 -93v-155z" />
<glyph unicode="&#x203a;" horiz-adv-x="350" d="M316 275l-249 -248v155l95 93l-95 93v155z" />
<glyph unicode="&#x205f;" horiz-adv-x="253" />
<glyph unicode="&#x2122;" horiz-adv-x="924" d="M860 285h-95v252l-80 -157h-84l-80 157v-252h-95v427h95l122 -228l122 228h95v-427zM360 627h-110v-342h-95v342h-110v85h315v-85z" />
</font>
</defs></svg> 